…
```
## -- Column specification --------------------------------------------------------
## Delimiter: ","
## chr (3): Song, Artist, Lyrics
## dbl (3): Rank, Year, Source
```

```
## 
## i Use `spec()` to retrieve the full column specification for this data.
## i Specify the column types or set `show_col_types = FALSE` to quiet this message.
```

```
## # A tibble: 100 x 6
##     Rank Song              Artist          Year Lyrics                    Source
##    <dbl> <chr>             <chr>          <dbl> <chr>                      <dbl>
##  1     1 uptown funk       mark ronson f~  2015 this hit that ice cold m~      1
##  2     2 thinking out loud ed sheeran      2015 when your legs dont work~      1
##  3     3 see you again     wiz khalifa f~  2015 its been a long day with~      1
##  4     4 trap queen        fetty wap       2015 im like hey wassup hello~      1
##  5     5 sugar             maroon 5        2015 im hurting baby im broke~      1
##  6     6 shut up and dance walk the moon   2015 oh dont you dare look ba~      1
##  7     7 blank space       taylor swift    2015 nice to meet you where y~      1
##  8     8 watch me          silento         2015 now watch me whip kill i~      1
##  9     9 earned it         the weeknd      2015 you make it look like it~      1
## 10    10 the hills         the weeknd      2015 your man on the road he ~      1
## # ... with 90 more rows
```
…
### Pre-processing


```r
top_100 <- lyrics %>%
  unnest_tokens(word, Lyrics, token = "words") %>%
  filter(!word %in% stop_words$word, str_detect(word, "[a-z]"))

top_100
```

```
## # A tibble: 14,747 x 4
##     Rank Song        Artist                           word    
##    <dbl> <chr>       <chr>                            <chr>   
##  1     1 uptown funk mark ronson featuring bruno mars hit     
##  2     1 uptown funk mark ronson featuring bruno mars ice     
##  3     1 uptown funk mark ronson featuring bruno mars cold    
##  4     1 uptown funk mark ronson featuring bruno mars michelle
##  5     1 uptown funk mark ronson featuring bruno mars pfeiffer
##  6     1 uptown funk mark ronson featuring bruno mars white   
##  7     1 uptown funk mark ronson featuring bruno mars gold    
##  8     1 uptown funk mark ronson featuring bruno mars hood    
##  9     1 uptown funk mark ronson featuring bruno mars girls   
## 10     1 uptown funk mark ronson featuring bruno mars girls   
## # ... with 14,737 more rows
```
…
```r
top_100 %>%
  inner_join(get_sentiments("afinn")) %>%
  count(Song, value) %>% 
  spread(value, n, fill = 0)
```

```
## Joining, by = "word"
```

```
## # A tibble: 97 x 10
##    Song                     `-5`  `-4`  `-3`  `-2`  `-1`   `1`   `2`   `3`   `4`
##    <chr>                   <dbl> <dbl> <dbl> <dbl> <dbl> <dbl> <dbl> <dbl> <dbl>
##  1 679                         2     4     1     1     0     5     6     2     0
##  2 711                         0     0     1     1     3     4     4     0     0
##  3 all about that bass         1     1     2     0     1     3     2     3     0
##  4 all eyes on you             5     2     0     6     1     2     1     5     0
##  5 animals                     0     0     1    10    10    19     0     1     0
##  6 ayo                        10    12     6     6     5     2     8     1     0
##  7 back to back                6     4     3     2     1     8     2     1     0
##  8 bad blood                   0     0    22     4     5     7     3     6     0
##  9 bang bang                   0     0     3     2     2     3     1     2     1
## 10 bitch better have my m~    32     2     0     1     7     0     3     0     0
## # ... with 87 more rows
```
 


```r
top_100 %>%
  group_by(word) %>%
  summarise(uses = n()) %>%
  arrange(desc(uses))
```

```
## # A tibble: 3,264 x 2
##    word   uses
##    <chr> <int>
##  1 im      548
##  2 dont    320
##  3 love    308
##  4 baby    173
##  5 wanna   155
##  6 youre   137
##  7 yeah    124
##  8 aint    123
##  9 gonna   117
## 10 hey     112
## # ... with 3,254 more rows
```
…
Top words in the weeknd's songs

```r
the_weeknd %>%
  group_by(word) %>%
  summarise(uses = n()) %>%
  arrange(desc(uses))
```

```
## # A tibble: 146 x 2
##    word    uses
##    <chr>  <int>
##  1 love      44
##  2 im        28
##  3 feel      22
##  4 girl      15
##  5 cked      13
##  6 real      12
##  7 youre     12
##  8 yeah      11
##  9 dont      10
## 10 earned    10
## # ... with 136 more rows
```
…
